\relax 
\citation{briggman2012volume}
\citation{hayworth2015ultrastructurally}
\@writefile{toc}{\contentsline {section}{\numberline {1}Cutting Technology}{1}}
\@writefile{lof}{\contentsline {figure}{\numberline {1}{\ignorespaces Left shows 4 consecutive images of a specific region of brain tissue and right shows the same region without the intermediate images. The absence of the two images in the middle extinguishes the ability to trace individual neurons from one image to the next, showcases the importance of a small slice thickness.\relax }}{2}}
\providecommand*\caption@xref[2]{\@setref\relax\@undefined{#1}}
\newlabel{fig:slices}{{1}{2}}
\citation{McIlwain Tissue Chopper}
\citation{McIlwain Tissue Chopper}
\citation{McIlwain Tissue Chopper}
\@writefile{toc}{\contentsline {subsection}{\numberline {1.1}Thick Sectioning}{3}}
\@writefile{toc}{\contentsline {subsubsection}{\numberline {1.1.1}Tissue Chopper}{3}}
\@writefile{lof}{\contentsline {figure}{\numberline {2}{\ignorespaces McIlwain Tissue Chopper. \cite  {McIlwain Tissue Chopper}\relax }}{3}}
\newlabel{fig:McIlwain}{{2}{3}}
\citation{Leica VT1200S W}
\citation{Leica VT1200S M}
\citation{Leica VT1200S W}
\citation{Leica VT1200S W}
\citation{hayworthreview}
\@writefile{toc}{\contentsline {subsubsection}{\numberline {1.1.2}Vibratome}{4}}
\@writefile{lof}{\contentsline {figure}{\numberline {3}{\ignorespaces Leica VT1200S fully automated vibrating blade microtome. \cite  {Leica VT1200S W}\relax }}{4}}
\newlabel{fig:VT1200S}{{3}{4}}
\citation{hayworthreview}
\citation{hayworthreview}
\citation{hayworthreview}
\@writefile{toc}{\contentsline {subsubsection}{\numberline {1.1.3}Thick-Strip Sectioning and Tape Collection Machine}{5}}
\@writefile{lof}{\contentsline {figure}{\numberline {4}{\ignorespaces CAD drawings depicting whole brain thick sectioning process. (a) Human brain block mounted in gantry-style Thick-Strip Sectioning and Tape Collection Machine. (b) Furrows are made in the block face at 3 mm intervals. (c) Collection tape adhered to the block face between two furrows, second diamond knife slices a 3 mm wide 20 micron deep strip of brain tissue immediately under the tapewhile simultaneously reeling the tissue strip up with the attached tape. (d) Relation between the furrow, tissue strip, and block face-adhered collection tape. \cite  {hayworthreview}\relax }}{6}}
\newlabel{fig:Thick_Strip}{{4}{6}}
\citation{hayworthreview}
\@writefile{toc}{\contentsline {subsubsection}{\numberline {1.1.4}Comparison}{7}}
\newlabel{tab:comparison_thick}{{\caption@xref {tab:comparison_thick}{ on input line 129}}{7}}
\@writefile{lot}{\contentsline {table}{\numberline {1}{\ignorespaces comparisons between diferent methods of thick sectioning\relax }}{7}}
\newlabel{tab:comparison_thick}{{1}{7}}
\@writefile{toc}{\contentsline {subsection}{\numberline {1.2}Ultrathin Sectioning}{7}}
\citation{denk2004serial}
\citation{jurrus2009axon}
\citation{jurrus2009axon}
\citation{denk2004serial}
\@writefile{toc}{\contentsline {subsubsection}{\numberline {1.2.1}Serial Block Face Scanning Electron Microscopy}{8}}
\@writefile{lof}{\contentsline {figure}{\numberline {5}{\ignorespaces Serial Block Face Scanning Electron Microscopy. \cite  {jurrus2009axon}\relax }}{8}}
\newlabel{fig:SBFSEM}{{5}{8}}
\citation{mayerich2008knife}
\citation{mayerich2008knife}
\@writefile{toc}{\contentsline {subsubsection}{\numberline {1.2.2}Knife-edge Scanning Microscope}{9}}
\@writefile{lof}{\contentsline {figure}{\numberline {6}{\ignorespaces Knife-edge Scanning Microscope. The knife-collimator assembly provides illumination for the light microscope.\cite  {mayerich2008knife}\relax }}{9}}
\newlabel{fig:KESM}{{6}{9}}
\citation{Knott2959}
\citation{Knott2959}
\citation{Knott2959}
\citation{hayworthreview}
\citation{hayworthreview}
\citation{hayworthreview}
\@writefile{toc}{\contentsline {subsubsection}{\numberline {1.2.3}Focused Ion Beam}{10}}
\citation{hayworthreview}
\citation{hayworthreview}
\citation{Diatome}
\citation{schalek2011atum}
\citation{schalek2011atum}
\citation{hayworth2014atum}
\@writefile{lof}{\contentsline {figure}{\numberline {7}{\ignorespaces The Pillar Sectioning and Tape Collection Machine, in which a thick-strip is placed and sectioned repeatedly into 20 $\mu $m x 20 $\mu $m x 180 mm pillars adheared to the edge of a new colleciton tape. \cite  {hayworthreview}\relax }}{11}}
\newlabel{fig:pillar}{{7}{11}}
\@writefile{toc}{\contentsline {subsubsection}{\numberline {1.2.4}Automated Tape-collecting Ultramicrotome}{11}}
\@writefile{lof}{\contentsline {figure}{\numberline {8}{\ignorespaces 20 $\mu $m x 20 $\mu $m x 180 mm tissue pillars milled and imaged. \cite  {hayworthreview}\relax }}{12}}
\newlabel{fig:FIBSEM_pillar}{{8}{12}}
\@writefile{lof}{\contentsline {figure}{\numberline {9}{\ignorespaces CAD drawing of the section collection process \cite  {schalek2011atum}\relax }}{12}}
\newlabel{fig:ATUM}{{9}{12}}
\citation{ATUM1}
\citation{ATUM1}
\@writefile{lof}{\contentsline {figure}{\numberline {10}{\ignorespaces Detailed view of ATUM device \cite  {ATUM1}\relax }}{13}}
\newlabel{fig:ATUM1}{{10}{13}}
\citation{hayworth2014atum}
\citation{hayworth2014atum}
\@writefile{lof}{\contentsline {figure}{\numberline {11}{\ignorespaces (G) Picture of unraveled tissue-tape on take-up reel containing a series of ultrathin sections. (H) Picture of a 100 mm diameter silicon wafer with 10 tissue-tape strips adhered to it. (I) Picture of 20 wafers all filled with tape strips from a single ATUM run consisting of over 15m of tissue tape. \cite  {hayworth2014atum}\relax }}{14}}
\newlabel{fig:tape}{{11}{14}}
\@writefile{toc}{\contentsline {subsubsection}{\numberline {1.2.5}Comparison}{14}}
\newlabel{tab:comparison_thin}{{\caption@xref {tab:comparison_thin}{ on input line 242}}{14}}
\@writefile{lot}{\contentsline {table}{\numberline {2}{\ignorespaces comparison between the two major methods with a single machine\relax }}{14}}
\newlabel{tab:comparison_thin}{{2}{14}}
\citation{hayworth2014atum}
\citation{Diatome}
\citation{Diatome}
\citation{Diatome}
\citation{Diatome}
\@writefile{toc}{\contentsline {subsection}{\numberline {1.3}Other Considerations}{15}}
\@writefile{toc}{\contentsline {subsubsection}{\numberline {1.3.1}Diamond Knife Resharpening}{15}}
\@writefile{lof}{\contentsline {figure}{\numberline {12}{\ignorespaces DiATOME Ultra Diamond knives. \cite  {Diatome}\relax }}{15}}
\newlabel{fig:Diatome1}{{12}{15}}
\@writefile{lot}{\contentsline {table}{\numberline {3}{\ignorespaces Ultra diamond knife 35$^\circ $ 3.5mm prices. \cite  {Diatome}\relax }}{15}}
\newlabel{tab:diamond}{{3}{15}}
\citation{resharpen}
\bibstyle{unsrt}
\bibdata{../bibfile}
\@writefile{toc}{\contentsline {subsubsection}{\numberline {1.3.2}Empty Sections}{16}}
\@writefile{toc}{\contentsline {subsection}{\numberline {1.4}Conclusion}{16}}
\@writefile{lof}{\contentsline {figure}{\numberline {13}{\ignorespaces Outline for the entire sectioning procedure\relax }}{17}}
