\contentsline {section}{\numberline {1}Cutting Technology}{1}
\contentsline {subsection}{\numberline {1.1}Thick Sectioning}{2}
\contentsline {subsection}{\numberline {1.2}Ultrathin Sectioning}{5}
\contentsline {subsubsection}{\numberline {1.2.1}Focused Ion Beam}{5}
\contentsline {subsubsection}{\numberline {1.2.2}Automated Tape-collecting Ultramicrotome}{8}
\contentsline {subsection}{\numberline {1.3}Comparison and Result}{10}
