\relax 
\providecommand*\new@tpo@label[2]{}
\citation{neuron}
\citation{seung}
\citation{neuron}
\citation{neuron}
\citation{humanconnectome}
\@writefile{toc}{\contentsline {section}{\numberline {1}Introduction}{6}}
\@writefile{toc}{\contentsline {subsection}{\numberline {1.1}A Brief Introduction Of The Design Project}{6}}
\@writefile{toc}{\contentsline {subsection}{\numberline {1.2}What Is A Connectome}{6}}
\citation{seung}
\citation{plasticity}
\@writefile{lof}{\contentsline {figure}{\numberline {1}{\ignorespaces An illustration of neuron\cite  {neuron}\relax }}{7}}
\providecommand*\caption@xref[2]{\@setref\relax\@undefined{#1}}
\newlabel{fig:neuron}{{1}{7}}
\@writefile{toc}{\contentsline {subsection}{\numberline {1.3}Implications Of Construction Of Human Connectome}{7}}
\citation{brainbowreview}
\citation{shi2017}
\citation{hcp}
\citation{hcp}
\citation{white}
\citation{mouseretina}
\citation{hayworthreview}
\citation{mappingworm}
\citation{numberofsynapses}
\@writefile{toc}{\contentsline {subsection}{\numberline {1.4}Challenges Of Building A Connectome}{8}}
\@writefile{lof}{\contentsline {figure}{\numberline {2}{\ignorespaces The Human Connectome Project\cite  {hcp} has acquired \textit  {in vivo} data of connectome at macroscale by using diffusion MRI techniques \relax }}{8}}
\newlabel{fig:neuron2}{{2}{8}}
\@writefile{toc}{\contentsline {subsection}{\numberline {1.5}A Solution Proposed For Human Connectome Construction}{9}}
\@writefile{lof}{\contentsline {figure}{\numberline {3}{\ignorespaces An illustration of the pipeline\relax }}{9}}
\newlabel{fig:pipeline}{{3}{9}}
\citation{autolysis}
\@writefile{toc}{\contentsline {section}{\numberline {2}Tissue Preparation}{11}}
\@writefile{toc}{\contentsline {subsection}{\numberline {2.1}The Necessity Of Chemical Process}{11}}
\@writefile{lof}{\contentsline {figure}{\numberline {4}{\ignorespaces A pipeline is proposed for the chemical process stage. We perform ASC on the client and then store the client's cephalon at low-temperature cryogenic storage. To perform thick-cutting, we remove the brain from the cephalon and cut it into 20 $\mu $m x 3 mm x 4 mm slices. The tissue strips are then stained and embedded by automated machines, preparing them for the subsequent ultrathin sectioning. \relax }}{11}}
\newlabel{fig:chempipeline}{{4}{11}}
\citation{mcintyre}
\citation{mcintyre}
\@writefile{toc}{\contentsline {subsection}{\numberline {2.2}Fixation}{12}}
\@writefile{toc}{\contentsline {subsubsection}{\numberline {2.2.1}ASC Procedure}{12}}
\@writefile{toc}{\contentsline {paragraph}{\numberline {2.2.1.1}Bilateral Carotid Cannulation}{12}}
\citation{mcintyre}
\citation{mcintyre}
\citation{mcintyre}
\citation{mcintyre}
\@writefile{lof}{\contentsline {figure}{\numberline {5}{\ignorespaces An illustration of the washout cart. The washout cart washes out the human’s blood in the skull. It consists of a 23L reservoir of oxygenated blood washout solution, a filter of 0.22$\mu $m, a heat exchanger that maintain the flow at 10$^{\circ }$C, and a thermometer and manometer. \cite  {mcintyre}\relax }}{13}}
\newlabel{fig:washoutcart}{{5}{13}}
\@writefile{toc}{\contentsline {paragraph}{\numberline {2.2.1.2}Fixation}{13}}
\citation{mcintyre}
\citation{mcintyre}
\@writefile{lof}{\contentsline {figure}{\numberline {6}{\ignorespaces An illustration of the CPA circuit. The circuit is used for fixating the brain and perfusing cryoprotectant. It consists of a gradient generator, two computer-controlled pumps, and a digital manometer. \cite  {mcintyre}\relax }}{14}}
\newlabel{fig:CPAcircuit}{{6}{14}}
\@writefile{toc}{\contentsline {paragraph}{\numberline {2.2.1.3}Computer Transfer}{14}}
\@writefile{toc}{\contentsline {paragraph}{\numberline {2.2.1.4}CPA Introduction}{14}}
\@writefile{toc}{\contentsline {paragraph}{\numberline {2.2.1.5}Vitrification}{14}}
\@writefile{toc}{\contentsline {subsubsection}{\numberline {2.2.2}Solutions Used And Scale Table}{14}}
\@writefile{lof}{\contentsline {figure}{\numberline {7}{\ignorespaces An illustration of fixtion process \cite  {mcintyre}\relax }}{15}}
\newlabel{fig:CPA}{{7}{15}}
\citation{mcintyre}
\@writefile{lot}{\contentsline {table}{\numberline {1}{\ignorespaces Solutions used\relax }}{16}}
\newlabel{ASCsolution}{{1}{16}}
\citation{mcintyre}
\citation{mcintyre}
\citation{brainisolation}
\@writefile{lot}{\contentsline {table}{\numberline {2}{\ignorespaces Solution scaling\relax }}{17}}
\newlabel{scaling}{{2}{17}}
\@writefile{toc}{\contentsline {subsubsection}{\numberline {2.2.3}Alternative Fixation Protocols}{17}}
\@writefile{toc}{\contentsline {paragraph}{\numberline {2.2.3.1}Immersion}{17}}
\@writefile{toc}{\contentsline {paragraph}{\numberline {2.2.3.2}Perfusion}{17}}
\@writefile{toc}{\contentsline {subsubsection}{\numberline {2.2.4}Retrieving The Brain}{17}}
\citation{mcintyre}
\citation{hayworthreview}
\citation{heinsen}
\@writefile{toc}{\contentsline {subsubsection}{\numberline {2.2.5}Preparation For Staining}{18}}
\citation{hayworth2015ultrastructurally}
\citation{McIlwainTissueChopper}
\citation{McIlwainTissueChopper}
\citation{McIlwainTissueChopper}
\@writefile{toc}{\contentsline {subsection}{\numberline {2.3}Thick Sectioning}{19}}
\@writefile{toc}{\contentsline {subsubsection}{\numberline {2.3.1}Tissue Chopper}{19}}
\@writefile{lof}{\contentsline {figure}{\numberline {8}{\ignorespaces McIlwain Tissue Chopper. \cite  {McIlwainTissueChopper}\relax }}{19}}
\newlabel{fig:McIlwain}{{8}{19}}
\citation{LeicaVT1200SW}
\citation{LeicaVT1200SW}
\citation{LeicaVT1200SW}
\citation{LeicaVT1200SM}
\@writefile{toc}{\contentsline {subsubsection}{\numberline {2.3.2}Vibratome}{20}}
\@writefile{lof}{\contentsline {figure}{\numberline {9}{\ignorespaces Leica VT1200S fully automated vibrating blade microtome. \cite  {LeicaVT1200SW}\relax }}{20}}
\newlabel{fig:VT1200S}{{9}{20}}
\citation{hayworthreview}
\citation{hayworthreview}
\citation{hayworthreview}
\citation{hayworthreview}
\@writefile{toc}{\contentsline {subsubsection}{\numberline {2.3.3}Thick-Strip Sectioning And Tape Collection Machine}{21}}
\@writefile{lof}{\contentsline {figure}{\numberline {10}{\ignorespaces (a) Human brain block mounted. (b) Furrows are made in the block face at 3 mm intervals. (c) A second diamond knife is used to slice strips of brain tissue at 3 mm wide, 20 micron deep. (d) An illustration of the tissue strip and collection tape. \cite  {hayworthreview}\relax }}{22}}
\newlabel{fig:Thick_Strip}{{10}{22}}
\citation{hayworthreview}
\@writefile{toc}{\contentsline {subsubsection}{\numberline {2.3.4}Comparison}{23}}
\newlabel{tab:comparison_thick}{{\caption@xref {tab:comparison_thick}{ on input line 364}}{23}}
\@writefile{lot}{\contentsline {table}{\numberline {3}{\ignorespaces comparisons between diferent methods of thick sectioning\relax }}{23}}
\newlabel{tab:comparison_thick}{{3}{23}}
\citation{hayworthreview}
\citation{bropa}
\citation{bropa}
\citation{bropa}
\citation{bropa}
\citation{Brainsize}
\citation{Brainsize}
\@writefile{toc}{\contentsline {subsection}{\numberline {2.4}Staining}{24}}
\@writefile{toc}{\contentsline {subsubsection}{\numberline {2.4.1}BROPA Staining Protocol}{24}}
\@writefile{lof}{\contentsline {figure}{\numberline {11}{\ignorespaces BROPA consists of a series of immersion.\cite  {bropa}\relax }}{24}}
\newlabel{fig:bropa}{{11}{24}}
\@writefile{lot}{\contentsline {table}{\numberline {4}{\ignorespaces Time scaling for brain slices. We have used an average brain size of 1200 cm$^3$\cite  {Brainsize} with a mass of 1200g. \relax }}{25}}
\newlabel{timescalingtable}{{4}{25}}
\@writefile{toc}{\contentsline {paragraph}{\numberline {2.4.1.1}Removing Embedment And Rinsing}{25}}
\@writefile{toc}{\contentsline {paragraph}{\numberline {2.4.1.2}Staining}{25}}
\citation{wbpatco}
\citation{bropa}
\citation{golgi}
\citation{golgi}
\citation{brainbowreview}
\citation{brainbow1}
\citation{brainbow1}
\citation{brainbow1}
\citation{brainbow1}
\citation{brainbowreview}
\@writefile{lot}{\contentsline {table}{\numberline {5}{\ignorespaces Solutions for BROPA protocol\relax }}{26}}
\newlabel{table:bropa}{{5}{26}}
\@writefile{toc}{\contentsline {paragraph}{\numberline {2.4.1.3}Dehydration}{26}}
\@writefile{toc}{\contentsline {subsubsection}{\numberline {2.4.2}Alternative Staining Protocols}{26}}
\@writefile{toc}{\contentsline {paragraph}{\numberline {2.4.2.1}wbPATCO}{26}}
\@writefile{toc}{\contentsline {paragraph}{\numberline {2.4.2.2}rOTO}{26}}
\@writefile{toc}{\contentsline {paragraph}{\numberline {2.4.2.3}Other Protocols}{26}}
\@writefile{toc}{\contentsline {subsubsection}{\numberline {2.4.3}Alternative Neuron-Tracing Strategies}{26}}
\citation{mapseq}
\citation{mapseq}
\@writefile{toc}{\contentsline {paragraph}{\numberline {2.4.3.1}Brainbow}{27}}
\@writefile{lof}{\contentsline {figure}{\numberline {12}{\ignorespaces (A)Brain circuit tracing using colour labeling. (B)Three-dimension reconstruction \cite  {brainbow1}\relax }}{27}}
\newlabel{fig:brainbowpic}{{12}{27}}
\@writefile{lof}{\contentsline {figure}{\numberline {13}{\ignorespaces By stochasitcally combining three colors, ten color labels could be created\cite  {brainbow1}\relax }}{28}}
\newlabel{fig:brainbows}{{13}{28}}
\@writefile{toc}{\contentsline {paragraph}{\numberline {2.4.3.2}MAPseq}{28}}
\@writefile{lof}{\contentsline {figure}{\numberline {14}{\ignorespaces Neurons are infected with a virus library. The barcode mRNA is expressed, trafficked and can be extracted as a measure of single-neuron projections.\cite  {mapseq}\relax }}{28}}
\newlabel{fig:mapseq1}{{14}{28}}
\citation{mapseq}
\citation{mapseq}
\citation{mapseq}
\citation{seedb2}
\@writefile{lof}{\contentsline {figure}{\numberline {15}{\ignorespaces (a) By reading out barcodes in the target areas, the connection to the source could be identified. (b) When multiple neurons are carrying a same barcode, all the projections would be interpreted as they are from the same source.\cite  {mapseq}\relax }}{29}}
\newlabel{fig:mapseq23}{{15}{29}}
\citation{seedb2}
\citation{seedb2}
\citation{seedb2}
\citation{hayworthreview}
\citation{seedb2}
\citation{seedb2}
\citation{dykstra}
\@writefile{toc}{\contentsline {paragraph}{\numberline {2.4.3.3}SeeDB2}{30}}
\@writefile{lof}{\contentsline {figure}{\numberline {16}{\ignorespaces SeeDB2 is an immersion-based protocol. The tissue is prepared by immersion in a series of solutions. Compared to other main clearing methods, it maintains fine neural morphology, resolution and brightness are maintained through the depths of SeeDB2.\cite  {seedb2}\relax }}{30}}
\newlabel{fig:seedb2protocol}{{16}{30}}
\@writefile{toc}{\contentsline {subsection}{\numberline {2.5}Embedding}{30}}
\citation{dykstra}
\citation{ayache}
\citation{ayache}
\citation{dykstra}
\citation{spurr}
\citation{dykstra}
\@writefile{lof}{\contentsline {figure}{\numberline {17}{\ignorespaces In the confocal imaging of Thy1-YFP-H mouse brains , neurons were better visualized in SeeDB2 than in SeeDB, CUBIC, and CLARITY, due to high fluorescence levels and low autofluorescence signals.\cite  {seedb2}\relax }}{31}}
\newlabel{fig:seedb2comparison}{{17}{31}}
\@writefile{toc}{\contentsline {subsubsection}{\numberline {2.5.1}An Improved Spurr's Protocol}{31}}
\citation{johnkuo}
\citation{bropa}
\@writefile{lot}{\contentsline {table}{\numberline {6}{\ignorespaces Proportion of propylene oxide and Spurr's for dehydration\relax }}{32}}
\newlabel{table:dehydration}{{6}{32}}
\@writefile{toc}{\contentsline {subsubsection}{\numberline {2.5.2}Scaling Of Embedding Media}{32}}
\citation{newman}
\citation{saul}
\citation{saul}
\citation{kellenberger}
\@writefile{toc}{\contentsline {subsubsection}{\numberline {2.5.3}Alternative Embedding Media}{33}}
\@writefile{toc}{\contentsline {paragraph}{\numberline {2.5.3.1}Acrylic Resin}{33}}
\@writefile{toc}{\contentsline {paragraph}{\numberline {2.5.3.2}Polyester}{33}}
\@writefile{toc}{\contentsline {subsection}{\numberline {2.6}Further Consideration For Automation}{33}}
\citation{medimeas}
\citation{LYNXII}
\citation{LYNXIIquote}
\citation{LMTP}
\citation{KEDEE}
\citation{excelsior}
\citation{sakura1}
\citation{peloris}
\citation{arcadia}
\citation{sakura2}
\citation{briggman2012volume}
\newlabel{RF1}{35}
\@writefile{lot}{\contentsline {table}{\numberline {7}{\ignorespaces A brief summary of automated tissue-processing machines\relax }}{35}}
\newlabel{TPmachines}{{7}{35}}
\citation{Brainsize}
\citation{denk2004serial}
\@writefile{toc}{\contentsline {subsection}{\numberline {2.7}Ultrathin Sectioning}{36}}
\@writefile{lof}{\contentsline {figure}{\numberline {18}{\ignorespaces Left shows 4 consecutive images of a specific region of brain tissue and right shows the same region without the intermediate images. The absence of the two images in the middle extinguishes the ability to trace individual neurons from one image to the next, showcasing the importance of slice thickness.\relax }}{37}}
\newlabel{fig:slices}{{18}{37}}
\citation{jurrus2009axon}
\citation{jurrus2009axon}
\citation{denk2004serial}
\@writefile{toc}{\contentsline {subsubsection}{\numberline {2.7.1}Serial Block Face Scanning Electron Microscopy}{38}}
\@writefile{lof}{\contentsline {figure}{\numberline {19}{\ignorespaces Serial Block Face Scanning Electron Microscopy. \cite  {jurrus2009axon}\relax }}{38}}
\newlabel{fig:SBFSEM}{{19}{38}}
\citation{mayerich2008knife}
\citation{mayerich2008knife}
\citation{Knott2959}
\@writefile{toc}{\contentsline {subsubsection}{\numberline {2.7.2}Knife-Edge Scanning Microscope}{39}}
\@writefile{lof}{\contentsline {figure}{\numberline {20}{\ignorespaces Knife-edge Scanning Microscope. The knife-collimator assembly provides illumination for the light microscope.\cite  {mayerich2008knife}\relax }}{39}}
\newlabel{fig:KESM}{{20}{39}}
\citation{Knott2959}
\citation{Knott2959}
\citation{Knott2959}
\citation{Knott2959}
\@writefile{toc}{\contentsline {subsubsection}{\numberline {2.7.3}Focused Ion Beam}{40}}
\@writefile{lof}{\contentsline {figure}{\numberline {21}{\ignorespaces Focused ion beam milling. \cite  {Knott2959}\relax }}{40}}
\newlabel{fig:fib}{{21}{40}}
\citation{hayworthreview}
\citation{hayworthreview}
\citation{hayworthreview}
\citation{hayworthreview}
\citation{hayworthreview}
\citation{Diatome}
\@writefile{lof}{\contentsline {figure}{\numberline {22}{\ignorespaces The Pillar Sectioning and Tape Collection Machine, in which a thick-strip is placed and sectioned repeatedly into 20 $\mu $m x 20 $\mu $m x 180 mm pillars adheared to the edge of a new colleciton tape. \cite  {hayworthreview}\relax }}{41}}
\newlabel{fig:pillar}{{22}{41}}
\@writefile{lof}{\contentsline {figure}{\numberline {23}{\ignorespaces 20 $\mu $m x 20 $\mu $m x 180 mm tissue pillars milled and imaged. \cite  {hayworthreview}\relax }}{42}}
\newlabel{fig:FIBSEM_pillar}{{23}{42}}
\citation{schalek2011atum}
\citation{schalek2011atum}
\citation{hayworth2014atum}
\@writefile{toc}{\contentsline {subsubsection}{\numberline {2.7.4}Automated Tape-Collecting Ultramicrotome}{43}}
\newlabel{section_ATUM}{{2.7.4}{43}}
\@writefile{lof}{\contentsline {figure}{\numberline {24}{\ignorespaces CAD drawing of the section collection process \cite  {schalek2011atum}\relax }}{43}}
\newlabel{fig:ATUM}{{24}{43}}
\citation{ATUM1}
\citation{ATUM1}
\citation{hayworth2014atum}
\citation{hayworth2014atum}
\@writefile{lof}{\contentsline {figure}{\numberline {25}{\ignorespaces Detailed view of ATUM device \cite  {ATUM1}\relax }}{44}}
\newlabel{fig:ATUM1}{{25}{44}}
\@writefile{lof}{\contentsline {figure}{\numberline {26}{\ignorespaces (G) Picture of unraveled tissue-tape on take-up reel containing a series of ultrathin sections. (H) Picture of a 100 mm diameter silicon wafer with 10 tissue-tape strips adhered to it. (I) Picture of 20 wafers all filled with tape strips from a single ATUM run consisting of over 15m of tissue tape. \cite  {hayworth2014atum}\relax }}{44}}
\newlabel{fig:tape}{{26}{44}}
\citation{hayworth2014atum}
\@writefile{toc}{\contentsline {subsubsection}{\numberline {2.7.5}Comparison}{45}}
\@writefile{lot}{\contentsline {table}{\numberline {8}{\ignorespaces comparison between the two major methods with a single machine\relax }}{45}}
\newlabel{tab:comparison_thin}{{8}{45}}
\citation{Diatome}
\citation{Diatome}
\citation{Diatome}
\citation{Diatome}
\citation{resharpen}
\@writefile{toc}{\contentsline {subsubsection}{\numberline {2.7.6}Other Considerations}{46}}
\@writefile{toc}{\contentsline {paragraph}{\numberline {2.7.6.1}Diamond Knife Resharpening}{46}}
\@writefile{lof}{\contentsline {figure}{\numberline {27}{\ignorespaces DiATOME Ultra Diamond knives. \cite  {Diatome}\relax }}{46}}
\newlabel{fig:Diatome1}{{27}{46}}
\@writefile{lot}{\contentsline {table}{\numberline {9}{\ignorespaces Ultra diamond knife 35$^\circ $ 3.5mm prices. \cite  {Diatome}\relax }}{46}}
\newlabel{tab:diamond}{{9}{46}}
\citation{Brainsize}
\citation{mcintyre}
\@writefile{toc}{\contentsline {paragraph}{\numberline {2.7.6.2}Empty Sections}{47}}
\@writefile{toc}{\contentsline {subsection}{\numberline {2.8}Risk Consideration}{47}}
\@writefile{lof}{\contentsline {figure}{\numberline {28}{\ignorespaces Outline for the entire sectioning procedure\relax }}{48}}
\newlabel{fig:sectioning_outline}{{28}{48}}
\@writefile{lot}{\contentsline {table}{\numberline {10}{\ignorespaces A HAZAN analysis on the possible failures of chemical pipeline\relax }}{49}}
\newlabel{HAZAN}{{10}{49}}
\citation{hayworthreview}
\@writefile{toc}{\contentsline {subsection}{\numberline {2.9}Time Consideration For Tissue Preparation}{51}}
\citation{quoteprice}
\citation{sakura2}
\citation{medfusion}
\@writefile{toc}{\contentsline {subsection}{\numberline {2.10}Cost Consideration For Tissue Preparation}{52}}
\citation{kasthuri2015saturated}
\@writefile{toc}{\contentsline {section}{\numberline {3}Imaging}{54}}
\@writefile{toc}{\contentsline {subsection}{\numberline {3.1}Live Imaging}{54}}
\citation{PETresolution}
\citation{MRI}
\citation{bloodVescels}
\citation{MRIphoto}
\citation{MRIphoto}
\citation{MRIresolution}
\@writefile{toc}{\contentsline {subsubsection}{\numberline {3.1.1}Magnetic Resonance Imaging (MRI)}{55}}
\citation{CTresolution}
\citation{nanoCTresolution}
\citation{nanoCTresolution}
\citation{nanoCTresolution}
\citation{nanoCTresolution}
\citation{nanoCTprice}
\@writefile{lof}{\contentsline {figure}{\numberline {29}{\ignorespaces MRI machine\cite  {MRIphoto}\relax }}{56}}
\newlabel{fig:MRImachine}{{29}{56}}
\@writefile{toc}{\contentsline {subsubsection}{\numberline {3.1.2}Computational Tomography (CT)}{56}}
\@writefile{toc}{\contentsline {subsection}{\numberline {3.2}Nano-Scale MRI And CT}{56}}
\@writefile{lof}{\contentsline {figure}{\numberline {30}{\ignorespaces Diagram of how micro-CT works\cite  {nanoCTresolution}\relax }}{57}}
\citation{abbe_equation}
\citation{Abbe}
\citation{NSOM}
\citation{NSOMphoto}
\citation{NSOMphoto}
\@writefile{toc}{\contentsline {subsection}{\numberline {3.3}Light Microscopy}{58}}
\newlabel{eq:abbe}{{1}{58}}
\citation{Brainsize}
\citation{NSOMmachineStats}
\citation{NSOMmachinePrice}
\citation{STEDphoto}
\citation{STEDphoto}
\citation{STEDresolution}
\citation{STEDmachineStats}
\citation{STEDmachinePrice}
\@writefile{toc}{\contentsline {subsubsection}{\numberline {3.3.1}Near-Field Scanning Optical Microscopy (NSOM)}{59}}
\@writefile{lof}{\contentsline {figure}{\numberline {31}{\ignorespaces A schematic of NSOM \cite  {NSOMphoto}\relax }}{59}}
\citation{STORMresolution}
\citation{STORMresolution}
\citation{STORMprice}
\citation{STORMphoto}
\citation{STORMphoto}
\@writefile{toc}{\contentsline {subsubsection}{\numberline {3.3.2}Stimulated Emission Depletion Microscopy (STED)}{60}}
\@writefile{lof}{\contentsline {figure}{\numberline {32}{\ignorespaces STED schematic \cite  {STEDphoto}\relax }}{60}}
\@writefile{toc}{\contentsline {subsubsection}{\numberline {3.3.3}STORM And PALM}{60}}
\citation{MINFLUXphoto}
\citation{MINFLUXphoto}
\@writefile{lof}{\contentsline {figure}{\numberline {33}{\ignorespaces STORM schematic \cite  {STORMphoto}\relax }}{61}}
\@writefile{toc}{\contentsline {subsubsection}{\numberline {3.3.4}Extra Considerations}{61}}
\@writefile{lof}{\contentsline {figure}{\numberline {34}{\ignorespaces Difference in resolution between MINFLUX and STORM \cite  {MINFLUXphoto}\relax }}{62}}
\@writefile{toc}{\contentsline {subsubsection}{\numberline {3.3.5}Comparison Of Light Microscopy Techniques}{62}}
\citation{Electron}
\citation{TEMphoto}
\citation{TEMphoto}
\citation{buban2009high}
\citation{TEMprice}
\@writefile{toc}{\contentsline {subsection}{\numberline {3.4}Electron Microscopy}{63}}
\@writefile{toc}{\contentsline {subsubsection}{\numberline {3.4.1}Transition Electron Microscopy}{63}}
\citation{SEMscan}
\citation{SEMprice}
\@writefile{lof}{\contentsline {figure}{\numberline {35}{\ignorespaces TEM schematic \cite  {TEMphoto}\relax }}{64}}
\@writefile{toc}{\contentsline {subsubsection}{\numberline {3.4.2}Scanning Electron Microscopy}{64}}
\citation{SEMphoto}
\citation{SEMphoto}
\citation{MultiSEMprice}
\citation{MultiSEMscanningRate}
\citation{MultiSEMphoto}
\citation{MultiSEMphoto}
\@writefile{lof}{\contentsline {figure}{\numberline {36}{\ignorespaces SEM schematic \cite  {SEMphoto}\relax }}{65}}
\@writefile{lof}{\contentsline {figure}{\numberline {37}{\ignorespaces MultiSEM 506 \cite  {MultiSEMphoto}\relax }}{66}}
\@writefile{toc}{\contentsline {subsubsection}{\numberline {3.4.3}MultiSEM 506}{66}}
\@writefile{toc}{\contentsline {subsubsection}{\numberline {3.4.4}Comparison Of EM}{66}}
\@writefile{toc}{\contentsline {subsection}{\numberline {3.5}Analysis}{67}}
\@writefile{lot}{\contentsline {table}{\numberline {11}{\ignorespaces Analysis of the different imaging techniques to be considered\relax }}{67}}
\newlabel{tab:Image_analysis}{{11}{67}}
\@writefile{toc}{\contentsline {subsection}{\numberline {3.6}Scanning Process And Maintenance}{67}}
\citation{WaferPhoto}
\citation{WaferPhoto}
\citation{MultiSEMhardware}
\citation{CPUaverageprice}
\citation{PowerGrid}
\citation{SolarPower}
\@writefile{lof}{\contentsline {figure}{\numberline {38}{\ignorespaces The wafer we will use for the process \cite  {WaferPhoto}\relax }}{68}}
\citation{ZeissDevelopement}
\@writefile{toc}{\contentsline {subsection}{\numberline {3.7}Future Development}{69}}
\@writefile{toc}{\contentsline {section}{\numberline {4}Data Processing Software}{70}}
\@writefile{toc}{\contentsline {subsection}{\numberline {4.1}Introduction}{70}}
\@writefile{toc}{\contentsline {subsection}{\numberline {4.2}Processing Algorithm}{70}}
\citation{cardona2012trakem2}
\citation{helmstaedter2013connectomic}
\citation{helmstaedter2013connectomic}
\citation{Januszewski2016FFN}
\citation{helmstaedter2013connectomic}
\citation{helmstaedter2011high}
\citation{merkel2007intervening}
\@writefile{lof}{\contentsline {figure}{\numberline {39}{\ignorespaces Example of segmentation of an image, where each colour represents a different object \cite  {helmstaedter2013connectomic}\relax }}{71}}
\newlabel{fig:segmentation}{{39}{71}}
\@writefile{toc}{\contentsline {subsubsection}{\numberline {4.2.1}Alignment}{71}}
\@writefile{toc}{\contentsline {subsubsection}{\numberline {4.2.2}Segmentation}{71}}
\newlabel{section_segmentation}{{4.2.2}{71}}
\citation{Januszewski2016FFN}
\citation{Januszewski2016FFN}
\@writefile{lof}{\contentsline {figure}{\numberline {40}{\ignorespaces Diagram showing object mask being created through inspection of different fields of view \cite  {Januszewski2016FFN}\relax }}{73}}
\newlabel{FFNdiagram}{{40}{73}}
\@writefile{lof}{\contentsline {figure}{\numberline {41}{\ignorespaces Example of a thin segment which could not be tracked by Flood-Filling Networks. The black dot shows the initial centre of the FoV, and the white dots show attempted new positions, however none of these are within the object. This leads to the truncated estimation shown on the right.\relax }}{74}}
\newlabel{fig:FFN_fail_case}{{41}{74}}
\@writefile{toc}{\contentsline {subsubsection}{\numberline {4.2.3}Segment Classification}{74}}
\citation{hu2008synapse}
\citation{schikorski1997synapse}
\citation{chaussard2011robust}
\citation{blum1967transformation}
\citation{chaussard2011robust}
\@writefile{toc}{\contentsline {subsubsection}{\numberline {4.2.4}Skeletonisation}{76}}
\newlabel{Skeletonisation}{{4.2.4}{76}}
\newlabel{fig:skeletonisation_object}{{12a}{78}}
\newlabel{sub@fig:skeletonisation_object}{{a}{78}}
\newlabel{fig:med_axis}{{12b}{78}}
\newlabel{sub@fig:med_axis}{{b}{78}}
\newlabel{fig:chosen_nodes}{{12c}{78}}
\newlabel{sub@fig:chosen_nodes}{{c}{78}}
\newlabel{fig:connections_graph}{{12d}{78}}
\newlabel{sub@fig:connections_graph}{{d}{78}}
\newlabel{fig:detailed_tree}{{12e}{78}}
\newlabel{sub@fig:detailed_tree}{{e}{78}}
\newlabel{fig:final_tree}{{12f}{78}}
\newlabel{sub@fig:final_tree}{{f}{78}}
\@writefile{lot}{\contentsline {table}{\numberline {12}{\ignorespaces Stages of the skeletonisation process\relax }}{78}}
\newlabel{tab:skeletonisation}{{12}{78}}
\citation{Januszewski2016FFN}
\citation{gleeson2010neuroml}
\@writefile{toc}{\contentsline {subsection}{\numberline {4.3}Training}{79}}
\@writefile{toc}{\contentsline {subsection}{\numberline {4.4}Storage Format}{80}}
\citation{Januszewski2016FFN}
\@writefile{toc}{\contentsline {subsection}{\numberline {4.5}Merging Blocks}{81}}
\@writefile{toc}{\contentsline {subsection}{\numberline {4.6}Performance}{81}}
\citation{pakkenberg2003aging}
\citation{hashmi2011automatic}
\@writefile{lof}{\contentsline {figure}{\numberline {42}{\ignorespaces Projected Memory Used Over Time\relax }}{82}}
\newlabel{fig:memory_usage}{{42}{82}}
\@writefile{toc}{\contentsline {section}{\numberline {5}Data Processing Hardware}{83}}
\@writefile{toc}{\contentsline {subsection}{\numberline {5.1}Introduction}{83}}
\@writefile{lof}{\contentsline {figure}{\numberline {43}{\ignorespaces Diagram Of Complete Data Processing Hardware\relax }}{83}}
\newlabel{fig:data_hardware_diagram}{{43}{83}}
\citation{man2013accelerating}
\citation{chaussard2011robust}
\citation{jouppi2017tpu}
\citation{gupta2015deep}
\@writefile{toc}{\contentsline {subsection}{\numberline {5.2}Processors}{84}}
\@writefile{lot}{\contentsline {table}{\numberline {13}{\ignorespaces Hardware requirements of each stage of the processing\relax }}{84}}
\newlabel{tab:processor_requirements}{{13}{84}}
\@writefile{toc}{\contentsline {subsubsection}{\numberline {5.2.1}Tensor Processing Units}{84}}
\citation{jouppi2017tpu}
\citation{jouppi2017tpu}
\citation{ASICcost}
\@writefile{lof}{\contentsline {figure}{\numberline {44}{\ignorespaces Tensor Processing Unit \cite  {jouppi2017tpu}\relax }}{85}}
\newlabel{fig:TPU_board}{{44}{85}}
\citation{man2013accelerating}
\citation{GTX1080}
\@writefile{toc}{\contentsline {subsubsection}{\numberline {5.2.2}Graphics Processing Units}{86}}
\@writefile{toc}{\contentsline {subsubsection}{\numberline {5.2.3}Central Processing Units}{86}}
\@writefile{toc}{\contentsline {subsection}{\numberline {5.3}Short-Term Storage}{87}}
\newlabel{req:block_size}{{1}{88}}
\newlabel{req:processing_time}{{2}{88}}
\newlabel{req:neurites}{{4}{88}}
\newlabel{req:speed}{{5}{88}}
\citation{HDDprice}
\citation{church2012next}
\@writefile{toc}{\contentsline {subsection}{\numberline {5.4}Long-Term Storage}{90}}
\@writefile{toc}{\contentsline {subsubsection}{\numberline {5.4.1}Comparison Of Storage Media}{90}}
\@writefile{lot}{\contentsline {table}{\numberline {14}{\ignorespaces Comparison of magnetic tape with a typical optical disc and an M-DISC\relax }}{90}}
\newlabel{tab:cold_storage_media}{{14}{90}}
\citation{LTO6specs}
\citation{LTO6specs}
\@writefile{toc}{\contentsline {subsubsection}{\numberline {5.4.2}Data Backup}{91}}
\@writefile{lof}{\contentsline {figure}{\numberline {45}{\ignorespaces Possible Arrangements Of Tape Backup\relax }}{92}}
\newlabel{fig:tape_backup}{{45}{92}}
\citation{barker1995phineas}
\@writefile{lof}{\contentsline {figure}{\numberline {46}{\ignorespaces Variation of Tape Losses With Backup Method\relax }}{93}}
\newlabel{fig:tape_losses}{{46}{93}}
\@writefile{toc}{\contentsline {subsubsection}{\numberline {5.4.3}Tape Hardware Requirements}{93}}
\citation{LTO6specs}
\citation{TapeDrivePrice}
\citation{TapeDrivePrice}
\citation{harddriveprices}
\citation{harddriveprices}
\@writefile{lot}{\contentsline {table}{\numberline {15}{\ignorespaces Breakdown Of Data Processing Cost\relax }}{95}}
\newlabel{tab:full_hardware_cost}{{15}{95}}
\@writefile{toc}{\contentsline {subsection}{\numberline {5.5}Data Hardware Summary}{95}}
\@writefile{lof}{\contentsline {figure}{\numberline {47}{\ignorespaces Decreasing Cost Of Both GPUs and HDDs \cite  {harddriveprices}\relax }}{96}}
\newlabel{fig:hardware_cost_decreasing}{{47}{96}}
\@writefile{toc}{\contentsline {section}{\numberline {6}Business Case}{97}}
\@writefile{lot}{\contentsline {table}{\numberline {16}{\ignorespaces Price Breakdown\relax }}{97}}
\newlabel{tab:cost_summary}{{16}{97}}
\@writefile{toc}{\contentsline {section}{\numberline {7}Challenge Problem}{98}}
\newlabel{challenge_problem}{{7}{98}}
\@writefile{toc}{\contentsline {subsection}{\numberline {7.1}Overview Of The Structure}{98}}
\@writefile{lof}{\contentsline {figure}{\numberline {48}{\ignorespaces An illustration of the CNN network\relax }}{98}}
\newlabel{fig:networkstructure}{{48}{98}}
\@writefile{toc}{\contentsline {subsection}{\numberline {7.2}Training}{99}}
\@writefile{lof}{\contentsline {figure}{\numberline {49}{\ignorespaces Change in Validation F1 Score Throughout Training\relax }}{99}}
\newlabel{fig:CNNtraining}{{49}{99}}
\@writefile{toc}{\contentsline {subsection}{\numberline {7.3}Integrating Challenge Problem With The Process}{100}}
\@writefile{toc}{\contentsline {subsubsection}{\numberline {7.3.1}Detection Only On Boundaries}{100}}
\@writefile{toc}{\contentsline {subsubsection}{\numberline {7.3.2}Grouping Synapse Voxels}{100}}
\citation{glial}
\citation{gila}
\citation{brenner}
\citation{assisteddying}
\citation{ethics}
\citation{ethics}
\@writefile{toc}{\contentsline {section}{\numberline {8}Other Consideration}{102}}
\@writefile{toc}{\contentsline {subsection}{\numberline {8.1}Connectome Theory}{102}}
\@writefile{toc}{\contentsline {subsection}{\numberline {8.2}Legal Consideration}{102}}
\bibstyle{unsrt}
\bibdata{../bibfile}
\@writefile{toc}{\contentsline {subsection}{\numberline {8.3}Ethical And Social Consideration}{103}}
