\relax 
\providecommand\hyper@newdestlabel[2]{}
\providecommand\HyperFirstAtBeginDocument{\AtBeginDocument}
\HyperFirstAtBeginDocument{\ifx\hyper@anchor\@undefined
\global\let\oldcontentsline\contentsline
\gdef\contentsline#1#2#3#4{\oldcontentsline{#1}{#2}{#3}}
\global\let\oldnewlabel\newlabel
\gdef\newlabel#1#2{\newlabelxx{#1}#2}
\gdef\newlabelxx#1#2#3#4#5#6{\oldnewlabel{#1}{{#2}{#3}}}
\AtEndDocument{\ifx\hyper@anchor\@undefined
\let\contentsline\oldcontentsline
\let\newlabel\oldnewlabel
\fi}
\fi}
\global\let\hyper@last\relax 
\gdef\HyperFirstAtBeginDocument#1{#1}
\providecommand\HyField@AuxAddToFields[1]{}
\providecommand\HyField@AuxAddToCoFields[2]{}
\@writefile{nav}{\headcommand {\slideentry {0}{0}{1}{1/1}{}{0}}}
\@writefile{nav}{\headcommand {\beamer@framepages {1}{1}}}
\@writefile{nav}{\headcommand {\slideentry {0}{0}{2}{2/2}{}{0}}}
\@writefile{nav}{\headcommand {\beamer@framepages {2}{2}}}
\@writefile{toc}{\beamer@sectionintoc {1}{Chemical Processing}{3}{0}{1}}
\@writefile{nav}{\headcommand {\sectionentry {1}{Chemical Processing}{3}{Chemical Processing}{0}}}
\@writefile{nav}{\headcommand {\beamer@sectionpages {1}{2}}}
\@writefile{nav}{\headcommand {\beamer@subsectionpages {1}{2}}}
\@writefile{nav}{\headcommand {\slideentry {1}{0}{1}{3/3}{}{0}}}
\@writefile{nav}{\headcommand {\beamer@framepages {3}{3}}}
\@writefile{toc}{\beamer@sectionintoc {2}{Cutting}{4}{0}{2}}
\@writefile{nav}{\headcommand {\sectionentry {2}{Cutting}{4}{Cutting}{0}}}
\@writefile{nav}{\headcommand {\beamer@sectionpages {3}{3}}}
\@writefile{nav}{\headcommand {\beamer@subsectionpages {3}{3}}}
\@writefile{nav}{\headcommand {\slideentry {2}{0}{1}{4/4}{}{0}}}
\@writefile{nav}{\headcommand {\beamer@framepages {4}{4}}}
\@writefile{toc}{\beamer@subsectionintoc {2}{1}{Underlying problems}{5}{0}{2}}
\@writefile{nav}{\headcommand {\beamer@subsectionentry {0}{2}{1}{5}{Underlying problems}}\headcommand {\beamer@subsectionpages {4}{4}}}
\newlabel{fig:figure1}{{1}{5}{Underlying problems}{Doc-Start}{}}
\@writefile{snm}{\beamer@slide {fig:figure1}{5}}
\@writefile{nav}{\headcommand {\slideentry {2}{1}{1}{5/5}{Underlying problems}{0}}}
\@writefile{nav}{\headcommand {\beamer@framepages {5}{5}}}
\citation{microtome}
\@writefile{toc}{\beamer@subsectionintoc {2}{2}{Microtome}{6}{0}{2}}
\@writefile{nav}{\headcommand {\beamer@subsectionentry {0}{2}{2}{6}{Microtome}}\headcommand {\beamer@subsectionpages {5}{5}}}
\@writefile{nav}{\headcommand {\slideentry {2}{2}{1}{6/6}{Microtome}{0}}}
\@writefile{nav}{\headcommand {\beamer@framepages {6}{6}}}
\citation{microtome}
\newlabel{fig:Sledge_microtome}{{2}{7}{Microtome}{Doc-Start}{}}
\@writefile{snm}{\beamer@slide {fig:Sledge_microtome}{7}}
\@writefile{nav}{\headcommand {\slideentry {2}{2}{2}{7/7}{Microtome}{0}}}
\@writefile{nav}{\headcommand {\beamer@framepages {7}{7}}}
\citation{microtome}
\newlabel{fig:Rotarymicrotome}{{3}{8}{Microtome}{Doc-Start}{}}
\@writefile{snm}{\beamer@slide {fig:Rotarymicrotome}{8}}
\@writefile{nav}{\headcommand {\slideentry {2}{2}{3}{8/8}{Microtome}{0}}}
\@writefile{nav}{\headcommand {\beamer@framepages {8}{8}}}
\citation{gibb1998method}
\citation{hokfelt1972modification}
\citation{landas1982staining}
\@writefile{toc}{\beamer@subsubsectionintoc {2}{2}{1}{Vibratome}{9}{0}{2}}
\@writefile{nav}{\headcommand {\beamer@subsubsectionentry {0}{2}{2}{1}{9}{Vibratome}}}
\@writefile{nav}{\headcommand {\slideentry {2}{2}{4}{9/9}{Microtome}{0}}}
\@writefile{nav}{\headcommand {\beamer@framepages {9}{9}}}
\citation{gibb1998method}
\citation{landas1982staining}
\citation{gibb1998method}
\citation{Leica}
\citation{Leica}
\@writefile{nav}{\headcommand {\slideentry {2}{2}{5}{10/10}{Microtome}{0}}}
\@writefile{nav}{\headcommand {\beamer@framepages {10}{10}}}
\citation{hayworth2015ultrastructurally}
\citation{mcintyre2015cryopreservation}
\@writefile{nav}{\headcommand {\slideentry {2}{2}{6}{11/11}{Microtome}{0}}}
\@writefile{nav}{\headcommand {\beamer@framepages {11}{11}}}
\@writefile{toc}{\beamer@subsubsectionintoc {2}{2}{2}{Ultramicrotome}{12}{0}{2}}
\@writefile{nav}{\headcommand {\beamer@subsubsectionentry {0}{2}{2}{2}{12}{Ultramicrotome}}}
\@writefile{nav}{\headcommand {\slideentry {2}{2}{7}{12/12}{Microtome}{0}}}
\@writefile{nav}{\headcommand {\beamer@framepages {12}{12}}}
\citation{hayworth2014atum}
\@writefile{nav}{\headcommand {\slideentry {2}{2}{8}{13/13}{Microtome}{0}}}
\@writefile{nav}{\headcommand {\beamer@framepages {13}{13}}}
\citation{Diatome}
\citation{Diatome}
\citation{Diatome}
\newlabel{fig:Diatome}{{4}{14}{Ultramicrotome}{Doc-Start}{}}
\@writefile{snm}{\beamer@slide {fig:Diatome}{14}}
\@writefile{nav}{\headcommand {\slideentry {2}{2}{9}{14/14}{Microtome}{0}}}
\@writefile{nav}{\headcommand {\beamer@framepages {14}{14}}}
\citation{schalek2011atum}
\newlabel{fig:ATUM}{{5}{15}{Ultramicrotome}{Doc-Start}{}}
\@writefile{snm}{\beamer@slide {fig:ATUM}{15}}
\@writefile{nav}{\headcommand {\slideentry {2}{2}{10}{15/15}{Microtome}{0}}}
\@writefile{nav}{\headcommand {\beamer@framepages {15}{15}}}
\citation{ATUM1}
\citation{ATUM1}
\newlabel{fig:ATUM1}{{6}{16}{Ultramicrotome}{Doc-Start}{}}
\@writefile{snm}{\beamer@slide {fig:ATUM1}{16}}
\@writefile{nav}{\headcommand {\slideentry {2}{2}{11}{16/16}{Microtome}{0}}}
\@writefile{nav}{\headcommand {\beamer@framepages {16}{16}}}
\citation{hayworth2014atum}
\@writefile{nav}{\headcommand {\slideentry {2}{2}{12}{17/17}{Microtome}{0}}}
\@writefile{nav}{\headcommand {\beamer@framepages {17}{17}}}
\@writefile{toc}{\beamer@subsectionintoc {2}{3}{Focused Ion Beam Milling}{18}{0}{2}}
\@writefile{nav}{\headcommand {\beamer@subsectionentry {0}{2}{3}{18}{Focused Ion Beam Milling}}\headcommand {\beamer@subsectionpages {6}{17}}}
\@writefile{nav}{\headcommand {\slideentry {2}{3}{1}{18/18}{Focused Ion Beam Milling}{0}}}
\@writefile{nav}{\headcommand {\beamer@framepages {18}{18}}}
\citation{Knott2959}
\@writefile{nav}{\headcommand {\slideentry {2}{3}{2}{19/19}{Focused Ion Beam Milling}{0}}}
\@writefile{nav}{\headcommand {\beamer@framepages {19}{19}}}
\citation{Knott2959}
\@writefile{nav}{\headcommand {\slideentry {2}{3}{3}{20/20}{Focused Ion Beam Milling}{0}}}
\@writefile{nav}{\headcommand {\beamer@framepages {20}{20}}}
\citation{Knott2959}
\@writefile{nav}{\headcommand {\slideentry {2}{3}{4}{21/21}{Focused Ion Beam Milling}{0}}}
\@writefile{nav}{\headcommand {\beamer@framepages {21}{21}}}
\@writefile{toc}{\beamer@subsectionintoc {2}{4}{Data recording}{22}{0}{2}}
\@writefile{nav}{\headcommand {\beamer@subsectionentry {0}{2}{4}{22}{Data recording}}\headcommand {\beamer@subsectionpages {18}{21}}}
\@writefile{nav}{\headcommand {\slideentry {2}{4}{1}{22/22}{Data recording}{0}}}
\@writefile{nav}{\headcommand {\beamer@framepages {22}{22}}}
\citation{hayworth2014atum}
\@writefile{nav}{\headcommand {\slideentry {2}{4}{2}{23/23}{Data recording}{0}}}
\@writefile{nav}{\headcommand {\beamer@framepages {23}{23}}}
\@writefile{nav}{\headcommand {\slideentry {2}{4}{3}{24/24}{Data recording}{0}}}
\@writefile{nav}{\headcommand {\beamer@framepages {24}{24}}}
\@writefile{toc}{\beamer@subsubsectionintoc {2}{4}{1}{Conclusion}{25}{0}{2}}
\@writefile{nav}{\headcommand {\beamer@subsubsectionentry {0}{2}{4}{1}{25}{Conclusion}}}
\newlabel{tab:conclusion}{{25}{25}{Conclusion}{Doc-Start}{}}
\@writefile{snm}{\beamer@slide {tab:conclusion}{25}}
\newlabel{tab:conclusion}{{1}{25}{Conclusion}{Doc-Start}{}}
\@writefile{snm}{\beamer@slide {tab:conclusion}{25}}
\@writefile{nav}{\headcommand {\slideentry {2}{4}{4}{25/25}{Data recording}{0}}}
\@writefile{nav}{\headcommand {\beamer@framepages {25}{25}}}
\citation{hayworth2014atum}
\@writefile{nav}{\headcommand {\slideentry {2}{4}{5}{26/26}{Data recording}{0}}}
\@writefile{nav}{\headcommand {\beamer@framepages {26}{26}}}
\@writefile{toc}{\beamer@sectionintoc {3}{Recording Technologies}{27}{0}{3}}
\@writefile{nav}{\headcommand {\sectionentry {3}{Recording Technologies}{27}{Recording Technologies}{0}}}
\@writefile{nav}{\headcommand {\beamer@sectionpages {4}{26}}}
\@writefile{nav}{\headcommand {\beamer@subsectionpages {22}{26}}}
\@writefile{nav}{\headcommand {\slideentry {3}{0}{1}{27/27}{}{0}}}
\@writefile{nav}{\headcommand {\beamer@framepages {27}{27}}}
\@writefile{toc}{\beamer@sectionintoc {4}{Data Processing}{28}{0}{4}}
\@writefile{nav}{\headcommand {\sectionentry {4}{Data Processing}{28}{Data Processing}{0}}}
\@writefile{nav}{\headcommand {\beamer@sectionpages {27}{27}}}
\@writefile{nav}{\headcommand {\beamer@subsectionpages {27}{27}}}
\@writefile{nav}{\headcommand {\slideentry {4}{0}{1}{28/28}{}{0}}}
\@writefile{nav}{\headcommand {\beamer@framepages {28}{28}}}
\@writefile{nav}{\headcommand {\slideentry {4}{0}{2}{29/29}{}{0}}}
\@writefile{nav}{\headcommand {\beamer@framepages {29}{29}}}
\bibstyle{plain}
\bibdata{bibfile}
\@writefile{nav}{\headcommand {\beamer@partpages {1}{29}}}
\@writefile{nav}{\headcommand {\beamer@subsectionpages {28}{29}}}
\@writefile{nav}{\headcommand {\beamer@sectionpages {28}{29}}}
\@writefile{nav}{\headcommand {\beamer@documentpages {29}}}
\@writefile{nav}{\headcommand {\def \inserttotalframenumber {29}}}
