\relax 
\providecommand\hyper@newdestlabel[2]{}
\providecommand\HyperFirstAtBeginDocument{\AtBeginDocument}
\HyperFirstAtBeginDocument{\ifx\hyper@anchor\@undefined
\global\let\oldcontentsline\contentsline
\gdef\contentsline#1#2#3#4{\oldcontentsline{#1}{#2}{#3}}
\global\let\oldnewlabel\newlabel
\gdef\newlabel#1#2{\newlabelxx{#1}#2}
\gdef\newlabelxx#1#2#3#4#5#6{\oldnewlabel{#1}{{#2}{#3}}}
\AtEndDocument{\ifx\hyper@anchor\@undefined
\let\contentsline\oldcontentsline
\let\newlabel\oldnewlabel
\fi}
\fi}
\global\let\hyper@last\relax 
\gdef\HyperFirstAtBeginDocument#1{#1}
\providecommand\HyField@AuxAddToFields[1]{}
\providecommand\HyField@AuxAddToCoFields[2]{}
\@writefile{nav}{\headcommand {\slideentry {0}{0}{1}{1/1}{}{0}}}
\@writefile{nav}{\headcommand {\beamer@framepages {1}{1}}}
\@writefile{nav}{\headcommand {\slideentry {0}{0}{2}{2/2}{}{0}}}
\@writefile{nav}{\headcommand {\beamer@framepages {2}{2}}}
\citation{hayworth2015ultrastructurally}
\@writefile{toc}{\beamer@sectionintoc {1}{Thick Sectioning}{3}{0}{1}}
\@writefile{nav}{\headcommand {\sectionentry {1}{Thick Sectioning}{3}{Thick Sectioning}{0}}}
\@writefile{nav}{\headcommand {\beamer@sectionpages {1}{2}}}
\@writefile{nav}{\headcommand {\beamer@subsectionpages {1}{2}}}
\@writefile{nav}{\headcommand {\slideentry {1}{0}{1}{3/3}{}{0}}}
\@writefile{nav}{\headcommand {\beamer@framepages {3}{3}}}
\citation{hayworthreview}
\@writefile{nav}{\headcommand {\slideentry {1}{0}{2}{4/4}{}{0}}}
\@writefile{nav}{\headcommand {\beamer@framepages {4}{4}}}
\citation{hayworthreview}
\citation{hayworthreview}
\newlabel{fig:Thick_Strip}{{1}{5}{Thick Sectioning}{Doc-Start}{}}
\@writefile{snm}{\beamer@slide {fig:Thick_Strip}{5}}
\@writefile{nav}{\headcommand {\slideentry {1}{0}{3}{5/5}{}{0}}}
\@writefile{nav}{\headcommand {\beamer@framepages {5}{5}}}
\@writefile{nav}{\headcommand {\slideentry {1}{0}{4}{6/6}{}{0}}}
\@writefile{nav}{\headcommand {\beamer@framepages {6}{6}}}
\citation{hayworthreview}
\@writefile{nav}{\headcommand {\slideentry {1}{0}{5}{7/7}{}{0}}}
\@writefile{nav}{\headcommand {\beamer@framepages {7}{7}}}
\@writefile{toc}{\beamer@sectionintoc {2}{Ultrathin Sectioning}{8}{0}{2}}
\@writefile{nav}{\headcommand {\sectionentry {2}{Ultrathin Sectioning}{8}{Ultrathin Sectioning}{0}}}
\@writefile{nav}{\headcommand {\beamer@sectionpages {3}{7}}}
\@writefile{nav}{\headcommand {\beamer@subsectionpages {3}{7}}}
\newlabel{fig:slices.png}{{2}{8}{Ultrathin Sectioning}{Doc-Start}{}}
\@writefile{snm}{\beamer@slide {fig:slices.png}{8}}
\@writefile{nav}{\headcommand {\slideentry {2}{0}{1}{8/8}{}{0}}}
\@writefile{nav}{\headcommand {\beamer@framepages {8}{8}}}
\citation{briggman2012volume}
\@writefile{nav}{\headcommand {\slideentry {2}{0}{2}{9/9}{}{0}}}
\@writefile{nav}{\headcommand {\beamer@framepages {9}{9}}}
\@writefile{nav}{\headcommand {\slideentry {2}{0}{3}{10/10}{}{0}}}
\@writefile{nav}{\headcommand {\beamer@framepages {10}{10}}}
\citation{microtome}
\@writefile{toc}{\beamer@subsectionintoc {2}{1}{Automated Tape-collecting Ultramicrotome}{11}{0}{2}}
\@writefile{nav}{\headcommand {\beamer@subsectionentry {0}{2}{1}{11}{Automated Tape-collecting Ultramicrotome}}\headcommand {\beamer@subsectionpages {8}{10}}}
\newlabel{fig:Rotarymicrotome}{{3}{11}{Automated Tape-collecting Ultramicrotome}{Doc-Start}{}}
\@writefile{snm}{\beamer@slide {fig:Rotarymicrotome}{11}}
\@writefile{nav}{\headcommand {\slideentry {2}{1}{1}{11/11}{Automated Tape-collecting Ultramicrotome}{0}}}
\@writefile{nav}{\headcommand {\beamer@framepages {11}{11}}}
\@writefile{nav}{\headcommand {\slideentry {2}{1}{2}{12/12}{Automated Tape-collecting Ultramicrotome}{0}}}
\@writefile{nav}{\headcommand {\beamer@framepages {12}{12}}}
\citation{hayworth2014atum}
\@writefile{nav}{\headcommand {\slideentry {2}{1}{3}{13/13}{Automated Tape-collecting Ultramicrotome}{0}}}
\@writefile{nav}{\headcommand {\beamer@framepages {13}{13}}}
\citation{schalek2011atum}
\newlabel{fig:ATUM}{{4}{14}{Automated Tape-collecting Ultramicrotome}{Doc-Start}{}}
\@writefile{snm}{\beamer@slide {fig:ATUM}{14}}
\@writefile{nav}{\headcommand {\slideentry {2}{1}{4}{14/14}{Automated Tape-collecting Ultramicrotome}{0}}}
\@writefile{nav}{\headcommand {\beamer@framepages {14}{14}}}
\citation{ATUM1}
\citation{ATUM1}
\newlabel{fig:ATUM1}{{5}{15}{Automated Tape-collecting Ultramicrotome}{Doc-Start}{}}
\@writefile{snm}{\beamer@slide {fig:ATUM1}{15}}
\@writefile{nav}{\headcommand {\slideentry {2}{1}{5}{15/15}{Automated Tape-collecting Ultramicrotome}{0}}}
\@writefile{nav}{\headcommand {\beamer@framepages {15}{15}}}
\citation{hayworth2014atum}
\@writefile{nav}{\headcommand {\slideentry {2}{1}{6}{16/16}{Automated Tape-collecting Ultramicrotome}{0}}}
\@writefile{nav}{\headcommand {\beamer@framepages {16}{16}}}
\@writefile{toc}{\beamer@subsectionintoc {2}{2}{Focused Ion Beam Milling}{17}{0}{2}}
\@writefile{nav}{\headcommand {\beamer@subsectionentry {0}{2}{2}{17}{Focused Ion Beam Milling}}\headcommand {\beamer@subsectionpages {11}{16}}}
\@writefile{nav}{\headcommand {\slideentry {2}{2}{1}{17/17}{Focused Ion Beam Milling}{0}}}
\@writefile{nav}{\headcommand {\beamer@framepages {17}{17}}}
\citation{Knott2959}
\@writefile{nav}{\headcommand {\slideentry {2}{2}{2}{18/18}{Focused Ion Beam Milling}{0}}}
\@writefile{nav}{\headcommand {\beamer@framepages {18}{18}}}
\citation{Knott2959}
\newlabel{fig:fib}{{6}{19}{Focused Ion Beam Milling}{Doc-Start}{}}
\@writefile{snm}{\beamer@slide {fig:fib}{19}}
\@writefile{nav}{\headcommand {\slideentry {2}{2}{3}{19/19}{Focused Ion Beam Milling}{0}}}
\@writefile{nav}{\headcommand {\beamer@framepages {19}{19}}}
\citation{Knott2959}
\@writefile{nav}{\headcommand {\slideentry {2}{2}{4}{20/20}{Focused Ion Beam Milling}{0}}}
\@writefile{nav}{\headcommand {\beamer@framepages {20}{20}}}
\citation{Knott2959}
\@writefile{nav}{\headcommand {\slideentry {2}{2}{5}{21/21}{Focused Ion Beam Milling}{0}}}
\@writefile{nav}{\headcommand {\beamer@framepages {21}{21}}}
\@writefile{toc}{\beamer@sectionintoc {3}{Conclusion}{22}{0}{3}}
\@writefile{nav}{\headcommand {\sectionentry {3}{Conclusion}{22}{Conclusion}{0}}}
\@writefile{nav}{\headcommand {\beamer@sectionpages {8}{21}}}
\@writefile{nav}{\headcommand {\beamer@subsectionpages {17}{21}}}
\newlabel{tab:conclusion}{{22}{22}{Conclusion}{Doc-Start}{}}
\@writefile{snm}{\beamer@slide {tab:conclusion}{22}}
\newlabel{tab:conclusion}{{1}{22}{Conclusion}{Doc-Start}{}}
\@writefile{snm}{\beamer@slide {tab:conclusion}{22}}
\@writefile{nav}{\headcommand {\slideentry {3}{0}{1}{22/22}{}{0}}}
\@writefile{nav}{\headcommand {\beamer@framepages {22}{22}}}
\@writefile{nav}{\headcommand {\slideentry {3}{0}{2}{23/23}{}{0}}}
\@writefile{nav}{\headcommand {\beamer@framepages {23}{23}}}
\@writefile{nav}{\headcommand {\slideentry {3}{0}{3}{24/24}{}{0}}}
\@writefile{nav}{\headcommand {\beamer@framepages {24}{24}}}
\bibstyle{plain}
\bibdata{bibfile}
\@writefile{nav}{\headcommand {\beamer@partpages {1}{24}}}
\@writefile{nav}{\headcommand {\beamer@subsectionpages {22}{24}}}
\@writefile{nav}{\headcommand {\beamer@sectionpages {22}{24}}}
\@writefile{nav}{\headcommand {\beamer@documentpages {24}}}
\@writefile{nav}{\headcommand {\def \inserttotalframenumber {24}}}
